[
  {
    "cmd": [
      "vpython3",
      "-u",
      "RECIPE_MODULE[recipe_engine::file]/resources/fileutil.py",
      "--json-output",
      "/path/to/tmp/json",
      "compute_hash",
      "RECIPE_REPO[infra]",
      "recipes/recipe_modules/support_3pp",
      "recipes/recipes/3pp.py",
      "infra/tools/dockerbuild"
    ],
    "infra_step": true,
    "name": "compute recipe file hash",
    "~followup_annotations": [
      "@@@STEP_TEXT@Hash calculated: deadbeef@@@"
    ]
  },
  {
    "cmd": [
      "cipd",
      "ensure",
      "-root",
      "[START_DIR]/reporter",
      "-ensure-file",
      "infra/tools/security/provenance_broker/${platform} git_revision:557c04a6caeb755ce7e75d234efc8481c924b1a6",
      "-max-threads",
      "0",
      "-json-output",
      "/path/to/tmp/json"
    ],
    "name": "ensure_installed",
    "~followup_annotations": [
      "@@@STEP_LOG_LINE@json.output@{@@@",
      "@@@STEP_LOG_LINE@json.output@  \"result\": {@@@",
      "@@@STEP_LOG_LINE@json.output@    \"\": [@@@",
      "@@@STEP_LOG_LINE@json.output@      {@@@",
      "@@@STEP_LOG_LINE@json.output@        \"instance_id\": \"resolved-instance_id-of-git_revision:557\", @@@",
      "@@@STEP_LOG_LINE@json.output@        \"package\": \"infra/tools/security/provenance_broker/resolved-platform\"@@@",
      "@@@STEP_LOG_LINE@json.output@      }@@@",
      "@@@STEP_LOG_LINE@json.output@    ]@@@",
      "@@@STEP_LOG_LINE@json.output@  }@@@",
      "@@@STEP_LOG_LINE@json.output@}@@@",
      "@@@STEP_LOG_END@json.output@@@"
    ]
  },
  {
    "cmd": [
      "[START_DIR]/reporter/snoopy_broker",
      "-report-stage",
      "-stage",
      "start",
      "-recipe",
      "3pp",
      "-pid",
      "12345"
    ],
    "name": "report_stage"
  },
  {
    "cmd": [
      "vpython3",
      "-u",
      "RECIPE_MODULE[recipe_engine::file]/resources/fileutil.py",
      "--json-output",
      "/path/to/tmp/json",
      "glob",
      "[CACHE]/builder",
      "*"
    ],
    "env": {
      "CIPD_CACHE_DIR": "[CLEANUP]/tmp_tmp_1"
    },
    "infra_step": true,
    "name": "read cached checkouts",
    "~followup_annotations": [
      "@@@STEP_LOG_LINE@glob@[CACHE]/builder/badc0ffe@@@",
      "@@@STEP_LOG_LINE@glob@[CACHE]/builder/deadbeef@@@",
      "@@@STEP_LOG_END@glob@@@"
    ]
  },
  {
    "cmd": [],
    "name": "load packages from desired repos"
  },
  {
    "cmd": [
      "python3",
      "-u",
      "RECIPE_MODULE[depot_tools::git]/resources/git_setup.py",
      "--path",
      "[CACHE]/builder/4fe007e88bd1d4a88e88cc231ab4045dbeee1088",
      "--url",
      "https://example.repo"
    ],
    "env": {
      "CIPD_CACHE_DIR": "[CLEANUP]/tmp_tmp_1"
    },
    "name": "load packages from desired repos.git setup",
    "~followup_annotations": [
      "@@@STEP_NEST_LEVEL@1@@@"
    ]
  },
  {
    "cmd": [
      "git",
      "fetch",
      "origin",
      "main",
      "--progress"
    ],
    "cwd": "[CACHE]/builder/4fe007e88bd1d4a88e88cc231ab4045dbeee1088",
    "env": {
      "CIPD_CACHE_DIR": "[CLEANUP]/tmp_tmp_1",
      "PATH": "RECIPE_REPO[depot_tools]:<PATH>"
    },
    "infra_step": true,
    "name": "load packages from desired repos.git fetch",
    "~followup_annotations": [
      "@@@STEP_NEST_LEVEL@1@@@"
    ]
  },
  {
    "cmd": [
      "git",
      "checkout",
      "-f",
      "FETCH_HEAD"
    ],
    "cwd": "[CACHE]/builder/4fe007e88bd1d4a88e88cc231ab4045dbeee1088",
    "env": {
      "CIPD_CACHE_DIR": "[CLEANUP]/tmp_tmp_1"
    },
    "infra_step": true,
    "name": "load packages from desired repos.git checkout",
    "~followup_annotations": [
      "@@@STEP_NEST_LEVEL@1@@@"
    ]
  },
  {
    "cmd": [
      "git",
      "rev-parse",
      "HEAD"
    ],
    "cwd": "[CACHE]/builder/4fe007e88bd1d4a88e88cc231ab4045dbeee1088",
    "env": {
      "CIPD_CACHE_DIR": "[CLEANUP]/tmp_tmp_1"
    },
    "infra_step": true,
    "name": "load packages from desired repos.read revision",
    "~followup_annotations": [
      "@@@STEP_NEST_LEVEL@1@@@",
      "@@@STEP_TEXT@<br/>checked out 'deadbeef'<br/>@@@"
    ]
  },
  {
    "cmd": [
      "git",
      "clean",
      "-f",
      "-d",
      "-x"
    ],
    "cwd": "[CACHE]/builder/4fe007e88bd1d4a88e88cc231ab4045dbeee1088",
    "env": {
      "CIPD_CACHE_DIR": "[CLEANUP]/tmp_tmp_1"
    },
    "infra_step": true,
    "name": "load packages from desired repos.git clean",
    "~followup_annotations": [
      "@@@STEP_NEST_LEVEL@1@@@"
    ]
  },
  {
    "cmd": [
      "vpython3",
      "-u",
      "RECIPE_MODULE[recipe_engine::file]/resources/fileutil.py",
      "--json-output",
      "/path/to/tmp/json",
      "glob",
      "[CACHE]/builder/4fe007e88bd1d4a88e88cc231ab4045dbeee1088/support_3pp",
      "**/3pp.pb"
    ],
    "env": {
      "CIPD_CACHE_DIR": "[CLEANUP]/tmp_tmp_1"
    },
    "infra_step": true,
    "name": "load packages from desired repos.find package specs",
    "~followup_annotations": [
      "@@@STEP_NEST_LEVEL@1@@@",
      "@@@STEP_LOG_LINE@glob@[CACHE]/builder/4fe007e88bd1d4a88e88cc231ab4045dbeee1088/support_3pp/pkg_a/3pp.pb@@@",
      "@@@STEP_LOG_LINE@glob@[CACHE]/builder/4fe007e88bd1d4a88e88cc231ab4045dbeee1088/support_3pp/pkg_b/3pp.pb@@@",
      "@@@STEP_LOG_END@glob@@@"
    ]
  },
  {
    "cmd": [],
    "name": "load packages from desired repos.load package specs",
    "~followup_annotations": [
      "@@@STEP_NEST_LEVEL@1@@@"
    ]
  },
  {
    "cmd": [
      "vpython3",
      "-u",
      "RECIPE_MODULE[recipe_engine::file]/resources/fileutil.py",
      "--json-output",
      "/path/to/tmp/json",
      "copy",
      "[CACHE]/builder/4fe007e88bd1d4a88e88cc231ab4045dbeee1088/support_3pp/pkg_a/3pp.pb",
      "/path/to/tmp/"
    ],
    "env": {
      "CIPD_CACHE_DIR": "[CLEANUP]/tmp_tmp_1"
    },
    "infra_step": true,
    "name": "load packages from desired repos.load package specs.read 'pkg_a/3pp.pb'",
    "~followup_annotations": [
      "@@@STEP_NEST_LEVEL@2@@@",
      "@@@STEP_LOG_LINE@3pp.pb@@@@",
      "@@@STEP_LOG_LINE@3pp.pb@    create { unsupported: true }@@@",
      "@@@STEP_LOG_LINE@3pp.pb@    upload { pkg_prefix: \"prefix/deps\" }@@@",
      "@@@STEP_LOG_LINE@3pp.pb@    @@@",
      "@@@STEP_LOG_END@3pp.pb@@@"
    ]
  },
  {
    "cmd": [
      "vpython3",
      "-u",
      "RECIPE_MODULE[recipe_engine::file]/resources/fileutil.py",
      "--json-output",
      "/path/to/tmp/json",
      "compute_hash",
      "[START_DIR]",
      "../[CACHE]/builder/4fe007e88bd1d4a88e88cc231ab4045dbeee1088/support_3pp/pkg_a"
    ],
    "env": {
      "CIPD_CACHE_DIR": "[CLEANUP]/tmp_tmp_1"
    },
    "infra_step": true,
    "name": "load packages from desired repos.load package specs.Compute hash for 'prefix/deps/pkg_a'",
    "~followup_annotations": [
      "@@@STEP_NEST_LEVEL@2@@@",
      "@@@STEP_TEXT@Hash calculated: deadbeef@@@"
    ]
  },
  {
    "cmd": [
      "vpython3",
      "-u",
      "RECIPE_MODULE[recipe_engine::file]/resources/fileutil.py",
      "--json-output",
      "/path/to/tmp/json",
      "copy",
      "[CACHE]/builder/4fe007e88bd1d4a88e88cc231ab4045dbeee1088/support_3pp/pkg_b/3pp.pb",
      "/path/to/tmp/"
    ],
    "env": {
      "CIPD_CACHE_DIR": "[CLEANUP]/tmp_tmp_1"
    },
    "infra_step": true,
    "name": "load packages from desired repos.load package specs.read 'pkg_b/3pp.pb'",
    "~followup_annotations": [
      "@@@STEP_NEST_LEVEL@2@@@",
      "@@@STEP_LOG_LINE@3pp.pb@@@@",
      "@@@STEP_LOG_LINE@3pp.pb@    create { unsupported: true }@@@",
      "@@@STEP_LOG_LINE@3pp.pb@    upload { pkg_prefix: \"prefix/deps\" }@@@",
      "@@@STEP_LOG_LINE@3pp.pb@    @@@",
      "@@@STEP_LOG_END@3pp.pb@@@"
    ]
  },
  {
    "cmd": [
      "vpython3",
      "-u",
      "RECIPE_MODULE[recipe_engine::file]/resources/fileutil.py",
      "--json-output",
      "/path/to/tmp/json",
      "compute_hash",
      "[START_DIR]",
      "../[CACHE]/builder/4fe007e88bd1d4a88e88cc231ab4045dbeee1088/support_3pp/pkg_b"
    ],
    "env": {
      "CIPD_CACHE_DIR": "[CLEANUP]/tmp_tmp_1"
    },
    "infra_step": true,
    "name": "load packages from desired repos.load package specs.Compute hash for 'prefix/deps/pkg_b'",
    "~followup_annotations": [
      "@@@STEP_NEST_LEVEL@2@@@",
      "@@@STEP_TEXT@Hash calculated: deadbeef@@@"
    ]
  },
  {
    "cmd": [],
    "name": "remove unused repos"
  },
  {
    "cmd": [
      "vpython3",
      "-u",
      "RECIPE_MODULE[recipe_engine::file]/resources/fileutil.py",
      "--json-output",
      "/path/to/tmp/json",
      "rmtree",
      "[CACHE]/builder/badc0ffe"
    ],
    "env": {
      "CIPD_CACHE_DIR": "[CLEANUP]/tmp_tmp_1"
    },
    "infra_step": true,
    "name": "remove unused repos.rm badc0ffe",
    "~followup_annotations": [
      "@@@STEP_NEST_LEVEL@1@@@"
    ]
  },
  {
    "cmd": [
      "vpython3",
      "-u",
      "RECIPE_MODULE[recipe_engine::file]/resources/fileutil.py",
      "--json-output",
      "/path/to/tmp/json",
      "rmtree",
      "[CACHE]/builder/deadbeef"
    ],
    "env": {
      "CIPD_CACHE_DIR": "[CLEANUP]/tmp_tmp_1"
    },
    "infra_step": true,
    "name": "remove unused repos.rm deadbeef",
    "~followup_annotations": [
      "@@@STEP_NEST_LEVEL@1@@@"
    ]
  },
  {
    "cmd": [],
    "name": "compute build plan"
  },
  {
    "cmd": [
      "[START_DIR]/reporter/snoopy_broker",
      "-report-stage",
      "-stage",
      "upload-complete"
    ],
    "env": {
      "CIPD_CACHE_DIR": "[CLEANUP]/tmp_tmp_1"
    },
    "name": "report_stage (2)"
  },
  {
    "cmd": [],
    "name": "2 packages unsupported for None",
    "~followup_annotations": [
      "@@@STEP_TEXT@<br/>prefix/deps/pkg_a<br/>prefix/deps/pkg_b@@@"
    ]
  },
  {
    "name": "$result"
  }
]