[
  {
    "cmd": [
      "git",
      "config",
      "--global",
      "core.symlinks",
      "true"
    ],
    "infra_step": true,
    "luci_context": {
      "realm": {
        "name": "infra:ci"
      },
      "resultdb": {
        "current_invocation": {
          "name": "invocations/build:8945511751514863184",
          "update_token": "token"
        },
        "hostname": "rdbhost"
      }
    },
    "name": "set symlinks"
  },
  {
    "cmd": [
      "vpython3",
      "-u",
      "RECIPE_MODULE[recipe_engine::file]\\resources\\fileutil.py",
      "--json-output",
      "/path/to/tmp/json",
      "ensure-directory",
      "--mode",
      "0777",
      "[CACHE]\\builder"
    ],
    "infra_step": true,
    "luci_context": {
      "realm": {
        "name": "infra:ci"
      },
      "resultdb": {
        "current_invocation": {
          "name": "invocations/build:8945511751514863184",
          "update_token": "token"
        },
        "hostname": "rdbhost"
      }
    },
    "name": "ensure builder dir"
  },
  {
    "cmd": [
      "vpython3",
      "-u",
      "RECIPE_MODULE[depot_tools::bot_update]\\resources\\bot_update.py",
      "--spec-path",
      "cache_dir = '[CACHE]\\\\git'\nsolutions = [{'custom_vars': {'infra_env_python': 'C:\\\\infra-system\\\\bin\\\\python.exe'}, 'deps_file': '.DEPS.git', 'managed': True, 'name': 'infra', 'url': 'https://chromium.googlesource.com/infra/infra.git'}]",
      "--revision_mapping_file",
      "{\"got_revision\": \"infra\"}",
      "--git-cache-dir",
      "[CACHE]\\git",
      "--cleanup-dir",
      "[CLEANUP]\\bot_update",
      "--output_json",
      "/path/to/tmp/json",
      "--revision",
      "infra@2d72510e447ab60a9728aeea2362d8be2cbd7789",
      "--refs",
      "refs/heads/main"
    ],
    "cwd": "[CACHE]\\builder",
    "env": {
      "DEPOT_TOOLS_REPORT_BUILD": "infra/ci/infra-continuous-win10-64/8945511751514863184",
      "GIT_HTTP_LOW_SPEED_LIMIT": "102400",
      "GIT_HTTP_LOW_SPEED_TIME": "1800"
    },
    "env_suffixes": {
      "DEPOT_TOOLS_UPDATE": [
        "0"
      ],
      "PATH": [
        "RECIPE_REPO[depot_tools]"
      ]
    },
    "infra_step": true,
    "luci_context": {
      "realm": {
        "name": "infra:ci"
      },
      "resultdb": {
        "current_invocation": {
          "name": "invocations/build:8945511751514863184",
          "update_token": "token"
        },
        "hostname": "rdbhost"
      }
    },
    "name": "bot_update",
    "~followup_annotations": [
      "@@@STEP_TEXT@Some step text@@@",
      "@@@STEP_LOG_LINE@json.output@{@@@",
      "@@@STEP_LOG_LINE@json.output@  \"did_run\": true, @@@",
      "@@@STEP_LOG_LINE@json.output@  \"fixed_revisions\": {@@@",
      "@@@STEP_LOG_LINE@json.output@    \"infra\": \"2d72510e447ab60a9728aeea2362d8be2cbd7789\"@@@",
      "@@@STEP_LOG_LINE@json.output@  }, @@@",
      "@@@STEP_LOG_LINE@json.output@  \"manifest\": {@@@",
      "@@@STEP_LOG_LINE@json.output@    \"infra\": {@@@",
      "@@@STEP_LOG_LINE@json.output@      \"repository\": \"https://fake.org/infra.git\", @@@",
      "@@@STEP_LOG_LINE@json.output@      \"revision\": \"2d72510e447ab60a9728aeea2362d8be2cbd7789\"@@@",
      "@@@STEP_LOG_LINE@json.output@    }@@@",
      "@@@STEP_LOG_LINE@json.output@  }, @@@",
      "@@@STEP_LOG_LINE@json.output@  \"patch_failure\": false, @@@",
      "@@@STEP_LOG_LINE@json.output@  \"patch_root\": \"infra\", @@@",
      "@@@STEP_LOG_LINE@json.output@  \"properties\": {@@@",
      "@@@STEP_LOG_LINE@json.output@    \"got_revision\": \"2d72510e447ab60a9728aeea2362d8be2cbd7789\", @@@",
      "@@@STEP_LOG_LINE@json.output@    \"got_revision_cp\": \"refs/heads/main@{#197293}\"@@@",
      "@@@STEP_LOG_LINE@json.output@  }, @@@",
      "@@@STEP_LOG_LINE@json.output@  \"root\": \"infra\", @@@",
      "@@@STEP_LOG_LINE@json.output@  \"source_manifest\": {@@@",
      "@@@STEP_LOG_LINE@json.output@    \"directories\": {@@@",
      "@@@STEP_LOG_LINE@json.output@      \"infra\": {@@@",
      "@@@STEP_LOG_LINE@json.output@        \"git_checkout\": {@@@",
      "@@@STEP_LOG_LINE@json.output@          \"repo_url\": \"https://fake.org/infra.git\", @@@",
      "@@@STEP_LOG_LINE@json.output@          \"revision\": \"2d72510e447ab60a9728aeea2362d8be2cbd7789\"@@@",
      "@@@STEP_LOG_LINE@json.output@        }@@@",
      "@@@STEP_LOG_LINE@json.output@      }@@@",
      "@@@STEP_LOG_LINE@json.output@    }, @@@",
      "@@@STEP_LOG_LINE@json.output@    \"version\": 0@@@",
      "@@@STEP_LOG_LINE@json.output@  }, @@@",
      "@@@STEP_LOG_LINE@json.output@  \"step_text\": \"Some step text\"@@@",
      "@@@STEP_LOG_LINE@json.output@}@@@",
      "@@@STEP_LOG_END@json.output@@@",
      "@@@SET_BUILD_PROPERTY@got_revision@\"2d72510e447ab60a9728aeea2362d8be2cbd7789\"@@@",
      "@@@SET_BUILD_PROPERTY@got_revision_cp@\"refs/heads/main@{#197293}\"@@@"
    ]
  },
  {
    "cmd": [
      "vpython3",
      "-u",
      "RECIPE_REPO[depot_tools]\\gclient.py",
      "runhooks"
    ],
    "cwd": "[CACHE]\\builder",
    "env": {
      "DEPOT_TOOLS_REPORT_BUILD": "infra/ci/infra-continuous-win10-64/8945511751514863184",
      "GOFLAGS": "-mod=readonly",
      "INFRA_GO_SKIP_TOOLS_INSTALL": "1",
      "INFRA_GO_VERSION_VARIANT": "bleeding_edge"
    },
    "env_suffixes": {
      "PATH": [
        "RECIPE_REPO[depot_tools]"
      ]
    },
    "luci_context": {
      "realm": {
        "name": "infra:ci"
      },
      "resultdb": {
        "current_invocation": {
          "name": "invocations/build:8945511751514863184",
          "update_token": "token"
        },
        "hostname": "rdbhost"
      }
    },
    "name": "gclient runhooks"
  },
  {
    "cmd": [
      "python",
      "test.py",
      "test"
    ],
    "cwd": "[CACHE]\\builder\\infra",
    "luci_context": {
      "realm": {
        "name": "infra:ci"
      },
      "resultdb": {
        "current_invocation": {
          "name": "invocations/build:8945511751514863184",
          "update_token": "token"
        },
        "hostname": "rdbhost"
      }
    },
    "name": "infra python tests"
  },
  {
    "cmd": [
      "vpython",
      "[CACHE]\\builder\\infra\\go\\bootstrap.py",
      "/path/to/tmp/json"
    ],
    "cwd": "[CACHE]\\builder",
    "env": {
      "GOFLAGS": "-mod=readonly",
      "INFRA_GO_SKIP_TOOLS_INSTALL": "1",
      "INFRA_GO_VERSION_VARIANT": "bleeding_edge"
    },
    "infra_step": true,
    "luci_context": {
      "realm": {
        "name": "infra:ci"
      },
      "resultdb": {
        "current_invocation": {
          "name": "invocations/build:8945511751514863184",
          "update_token": "token"
        },
        "hostname": "rdbhost"
      }
    },
    "name": "init infra go env",
    "~followup_annotations": [
      "@@@STEP_TEXT@Using go 1.66.6@@@",
      "@@@STEP_LOG_LINE@json.output@{@@@",
      "@@@STEP_LOG_LINE@json.output@  \"env\": {@@@",
      "@@@STEP_LOG_LINE@json.output@    \"GOROOT\": \"[CACHE]\\\\builder\\\\golang\\\\go\"@@@",
      "@@@STEP_LOG_LINE@json.output@  }, @@@",
      "@@@STEP_LOG_LINE@json.output@  \"env_prefixes\": {@@@",
      "@@@STEP_LOG_LINE@json.output@    \"PATH\": [@@@",
      "@@@STEP_LOG_LINE@json.output@      \"[CACHE]\\\\builder\\\\golang\\\\go\"@@@",
      "@@@STEP_LOG_LINE@json.output@    ]@@@",
      "@@@STEP_LOG_LINE@json.output@  }, @@@",
      "@@@STEP_LOG_LINE@json.output@  \"env_suffixes\": {@@@",
      "@@@STEP_LOG_LINE@json.output@    \"PATH\": [@@@",
      "@@@STEP_LOG_LINE@json.output@      \"[CACHE]\\\\builder\\\\infra\\\\go\\\\bin\"@@@",
      "@@@STEP_LOG_LINE@json.output@    ]@@@",
      "@@@STEP_LOG_LINE@json.output@  }, @@@",
      "@@@STEP_LOG_LINE@json.output@  \"go_version\": \"1.66.6\"@@@",
      "@@@STEP_LOG_LINE@json.output@}@@@",
      "@@@STEP_LOG_END@json.output@@@"
    ]
  },
  {
    "cmd": [
      "rdb",
      "stream",
      "--",
      "vpython",
      "-u",
      "[CACHE]\\builder\\infra\\go\\test.py"
    ],
    "cwd": "[CACHE]\\builder\\infra\\go\\src\\infra",
    "env": {
      "GOFLAGS": "-mod=readonly",
      "GOROOT": "[CACHE]\\builder\\golang\\go",
      "INFRA_GO_SKIP_TOOLS_INSTALL": "1",
      "INFRA_GO_VERSION_VARIANT": "bleeding_edge"
    },
    "env_prefixes": {
      "PATH": [
        "[CACHE]\\builder\\golang\\go"
      ]
    },
    "env_suffixes": {
      "DEPOT_TOOLS_UPDATE": [
        "0"
      ],
      "PATH": [
        "[CACHE]\\builder\\infra\\go\\bin",
        "RECIPE_REPO[depot_tools]"
      ]
    },
    "luci_context": {
      "realm": {
        "name": "infra:ci"
      },
      "resultdb": {
        "current_invocation": {
          "name": "invocations/build:8945511751514863184",
          "update_token": "token"
        },
        "hostname": "rdbhost"
      }
    },
    "name": "infra go tests"
  },
  {
    "cmd": [
      "vpython",
      "[CACHE]\\builder\\infra\\build\\build.py",
      "--no-freshen-python-env",
      "--builder",
      "infra-continuous-win10-64"
    ],
    "cwd": "[CACHE]\\builder\\infra\\go\\src\\infra",
    "env": {
      "GOFLAGS": "-mod=readonly",
      "GOROOT": "[CACHE]\\builder\\golang\\go",
      "INFRA_GO_SKIP_TOOLS_INSTALL": "1",
      "INFRA_GO_VERSION_VARIANT": "bleeding_edge"
    },
    "env_prefixes": {
      "PATH": [
        "[CACHE]\\builder\\golang\\go"
      ]
    },
    "env_suffixes": {
      "PATH": [
        "[CACHE]\\builder\\infra\\go\\bin"
      ]
    },
    "luci_context": {
      "realm": {
        "name": "infra:ci"
      },
      "resultdb": {
        "current_invocation": {
          "name": "invocations/build:8945511751514863184",
          "update_token": "token"
        },
        "hostname": "rdbhost"
      }
    },
    "name": "cipd - build packages"
  },
  {
    "cmd": [
      "vpython",
      "[CACHE]\\builder\\infra\\build\\test_packages.py"
    ],
    "cwd": "[CACHE]\\builder\\infra\\go\\src\\infra",
    "env": {
      "GOFLAGS": "-mod=readonly",
      "GOROOT": "[CACHE]\\builder\\golang\\go",
      "INFRA_GO_SKIP_TOOLS_INSTALL": "1",
      "INFRA_GO_VERSION_VARIANT": "bleeding_edge"
    },
    "env_prefixes": {
      "PATH": [
        "[CACHE]\\builder\\golang\\go"
      ]
    },
    "env_suffixes": {
      "PATH": [
        "[CACHE]\\builder\\infra\\go\\bin"
      ]
    },
    "luci_context": {
      "realm": {
        "name": "infra:ci"
      },
      "resultdb": {
        "current_invocation": {
          "name": "invocations/build:8945511751514863184",
          "update_token": "token"
        },
        "hostname": "rdbhost"
      }
    },
    "name": "cipd - test packages integrity"
  },
  {
    "cmd": [
      "vpython",
      "[CACHE]\\builder\\infra\\build\\build.py",
      "--no-freshen-python-env",
      "--builder",
      "infra-continuous-win10-64"
    ],
    "cwd": "[CACHE]\\builder\\infra\\go\\src\\infra",
    "env": {
      "GOARCH": "386",
      "GOFLAGS": "-mod=readonly",
      "GOOS": "windows",
      "GOROOT": "[CACHE]\\builder\\golang\\go",
      "INFRA_GO_SKIP_TOOLS_INSTALL": "1",
      "INFRA_GO_VERSION_VARIANT": "bleeding_edge"
    },
    "env_prefixes": {
      "PATH": [
        "[CACHE]\\builder\\golang\\go"
      ]
    },
    "env_suffixes": {
      "PATH": [
        "[CACHE]\\builder\\infra\\go\\bin"
      ]
    },
    "luci_context": {
      "realm": {
        "name": "infra:ci"
      },
      "resultdb": {
        "current_invocation": {
          "name": "invocations/build:8945511751514863184",
          "update_token": "token"
        },
        "hostname": "rdbhost"
      }
    },
    "name": "[GOOS:windows GOARCH:386]cipd - build packages"
  },
  {
    "cmd": [
      "vpython",
      "[CACHE]\\builder\\infra\\build\\test_packages.py"
    ],
    "cwd": "[CACHE]\\builder\\infra\\go\\src\\infra",
    "env": {
      "GOARCH": "386",
      "GOFLAGS": "-mod=readonly",
      "GOOS": "windows",
      "GOROOT": "[CACHE]\\builder\\golang\\go",
      "INFRA_GO_SKIP_TOOLS_INSTALL": "1",
      "INFRA_GO_VERSION_VARIANT": "bleeding_edge"
    },
    "env_prefixes": {
      "PATH": [
        "[CACHE]\\builder\\golang\\go"
      ]
    },
    "env_suffixes": {
      "PATH": [
        "[CACHE]\\builder\\infra\\go\\bin"
      ]
    },
    "luci_context": {
      "realm": {
        "name": "infra:ci"
      },
      "resultdb": {
        "current_invocation": {
          "name": "invocations/build:8945511751514863184",
          "update_token": "token"
        },
        "hostname": "rdbhost"
      }
    },
    "name": "[GOOS:windows GOARCH:386]cipd - test packages integrity"
  },
  {
    "name": "$result"
  }
]