[
  {
    "cmd": [
      "vpython3",
      "RECIPE_REPO[depot_tools]/gerrit_client.py",
      "changes",
      "--host",
      "https://chromium-review.googlesource.com",
      "--json_file",
      "/path/to/tmp/json",
      "--limit",
      "1",
      "-p",
      "change=123456",
      "-o",
      "ALL_REVISIONS",
      "-o",
      "DOWNLOAD_COMMANDS"
    ],
    "env": {
      "PATH": "<PATH>:RECIPE_REPO[depot_tools]"
    },
    "infra_step": true,
    "luci_context": {
      "realm": {
        "name": "infra/gerrit-plugins/chromium-style:try"
      },
      "resultdb": {
        "current_invocation": {
          "name": "invocations/build:8945511751514863184",
          "update_token": "token"
        },
        "hostname": "rdbhost"
      }
    },
    "name": "gerrit fetch current CL info",
    "timeout": 60,
    "~followup_annotations": [
      "@@@STEP_LOG_LINE@json.output@[@@@",
      "@@@STEP_LOG_LINE@json.output@  {@@@",
      "@@@STEP_LOG_LINE@json.output@    \"branch\": \"main\", @@@",
      "@@@STEP_LOG_LINE@json.output@    \"owner\": {@@@",
      "@@@STEP_LOG_LINE@json.output@      \"name\": \"John Doe\"@@@",
      "@@@STEP_LOG_LINE@json.output@    }, @@@",
      "@@@STEP_LOG_LINE@json.output@    \"revisions\": {@@@",
      "@@@STEP_LOG_LINE@json.output@      \"184ebe53805e102605d11f6b143486d15c23a09c\": {@@@",
      "@@@STEP_LOG_LINE@json.output@        \"_number\": \"7\", @@@",
      "@@@STEP_LOG_LINE@json.output@        \"ref\": \"refs/changes/56/123456/7\"@@@",
      "@@@STEP_LOG_LINE@json.output@      }@@@",
      "@@@STEP_LOG_LINE@json.output@    }@@@",
      "@@@STEP_LOG_LINE@json.output@  }@@@",
      "@@@STEP_LOG_LINE@json.output@]@@@",
      "@@@STEP_LOG_END@json.output@@@"
    ]
  },
  {
    "cmd": [
      "vpython3",
      "-u",
      "RECIPE_MODULE[depot_tools::bot_update]/resources/bot_update.py",
      "--spec-path",
      "cache_dir = '[CACHE]/git'\nsolutions = [{'deps_file': '.DEPS.git', 'managed': True, 'name': 'gerrit', 'url': 'https://gerrit.googlesource.com/gerrit.git'}, {'deps_file': '.DEPS.git', 'managed': True, 'name': 'gerrit_plugins_chromium_style', 'url': 'https://chromium.googlesource.com/infra/gerrit-plugins/chromium-style.git'}]",
      "--patch_root",
      "infra/gerrit-plugins/chromium-style",
      "--revision_mapping_file",
      "{\"got_revision\": \"gerrit_plugins_binary_size\"}",
      "--git-cache-dir",
      "[CACHE]/git",
      "--cleanup-dir",
      "[CLEANUP]/bot_update",
      "--output_json",
      "/path/to/tmp/json",
      "--patch_ref",
      "https://chromium.googlesource.com/infra/gerrit-plugins/chromium-style@refs/heads/main:refs/changes/56/123456/7",
      "--revision",
      "gerrit@refs/heads/master",
      "--refs",
      "refs/heads/master"
    ],
    "env": {
      "DEPOT_TOOLS_REPORT_BUILD": "infra/gerrit-plugins/chromium-style/try/builder/8945511751514863184",
      "GIT_HTTP_LOW_SPEED_LIMIT": "102400",
      "GIT_HTTP_LOW_SPEED_TIME": "1800"
    },
    "env_suffixes": {
      "DEPOT_TOOLS_UPDATE": [
        "0"
      ],
      "PATH": [
        "RECIPE_REPO[depot_tools]"
      ]
    },
    "infra_step": true,
    "luci_context": {
      "realm": {
        "name": "infra/gerrit-plugins/chromium-style:try"
      },
      "resultdb": {
        "current_invocation": {
          "name": "invocations/build:8945511751514863184",
          "update_token": "token"
        },
        "hostname": "rdbhost"
      }
    },
    "name": "bot_update",
    "~followup_annotations": [
      "@@@STEP_TEXT@Some step text@@@",
      "@@@STEP_LOG_LINE@json.output@{@@@",
      "@@@STEP_LOG_LINE@json.output@  \"did_run\": true, @@@",
      "@@@STEP_LOG_LINE@json.output@  \"fixed_revisions\": {@@@",
      "@@@STEP_LOG_LINE@json.output@    \"gerrit\": \"refs/heads/master\"@@@",
      "@@@STEP_LOG_LINE@json.output@  }, @@@",
      "@@@STEP_LOG_LINE@json.output@  \"manifest\": {@@@",
      "@@@STEP_LOG_LINE@json.output@    \"gerrit\": {@@@",
      "@@@STEP_LOG_LINE@json.output@      \"repository\": \"https://fake.org/gerrit.git\", @@@",
      "@@@STEP_LOG_LINE@json.output@      \"revision\": \"b665190b89b9a639b49eb965e8817b29410f5e8a\"@@@",
      "@@@STEP_LOG_LINE@json.output@    }, @@@",
      "@@@STEP_LOG_LINE@json.output@    \"gerrit_plugins_binary_size\": {@@@",
      "@@@STEP_LOG_LINE@json.output@      \"repository\": \"https://fake.org/gerrit_plugins_binary_size.git\", @@@",
      "@@@STEP_LOG_LINE@json.output@      \"revision\": \"0c9cb260ef960006ccb60862034b5daecd15b5f6\"@@@",
      "@@@STEP_LOG_LINE@json.output@    }@@@",
      "@@@STEP_LOG_LINE@json.output@  }, @@@",
      "@@@STEP_LOG_LINE@json.output@  \"patch_failure\": false, @@@",
      "@@@STEP_LOG_LINE@json.output@  \"patch_root\": \"infra/gerrit-plugins/chromium-style\", @@@",
      "@@@STEP_LOG_LINE@json.output@  \"properties\": {@@@",
      "@@@STEP_LOG_LINE@json.output@    \"got_revision\": \"0c9cb260ef960006ccb60862034b5daecd15b5f6\", @@@",
      "@@@STEP_LOG_LINE@json.output@    \"got_revision_cp\": \"refs/heads/main@{#95872}\"@@@",
      "@@@STEP_LOG_LINE@json.output@  }, @@@",
      "@@@STEP_LOG_LINE@json.output@  \"root\": \"gerrit\", @@@",
      "@@@STEP_LOG_LINE@json.output@  \"source_manifest\": {@@@",
      "@@@STEP_LOG_LINE@json.output@    \"directories\": {@@@",
      "@@@STEP_LOG_LINE@json.output@      \"gerrit\": {@@@",
      "@@@STEP_LOG_LINE@json.output@        \"git_checkout\": {@@@",
      "@@@STEP_LOG_LINE@json.output@          \"repo_url\": \"https://fake.org/gerrit.git\", @@@",
      "@@@STEP_LOG_LINE@json.output@          \"revision\": \"b665190b89b9a639b49eb965e8817b29410f5e8a\"@@@",
      "@@@STEP_LOG_LINE@json.output@        }@@@",
      "@@@STEP_LOG_LINE@json.output@      }, @@@",
      "@@@STEP_LOG_LINE@json.output@      \"gerrit_plugins_binary_size\": {@@@",
      "@@@STEP_LOG_LINE@json.output@        \"git_checkout\": {@@@",
      "@@@STEP_LOG_LINE@json.output@          \"repo_url\": \"https://fake.org/gerrit_plugins_binary_size.git\", @@@",
      "@@@STEP_LOG_LINE@json.output@          \"revision\": \"0c9cb260ef960006ccb60862034b5daecd15b5f6\"@@@",
      "@@@STEP_LOG_LINE@json.output@        }@@@",
      "@@@STEP_LOG_LINE@json.output@      }@@@",
      "@@@STEP_LOG_LINE@json.output@    }, @@@",
      "@@@STEP_LOG_LINE@json.output@    \"version\": 0@@@",
      "@@@STEP_LOG_LINE@json.output@  }, @@@",
      "@@@STEP_LOG_LINE@json.output@  \"step_text\": \"Some step text\"@@@",
      "@@@STEP_LOG_LINE@json.output@}@@@",
      "@@@STEP_LOG_END@json.output@@@",
      "@@@SET_BUILD_PROPERTY@got_revision@\"0c9cb260ef960006ccb60862034b5daecd15b5f6\"@@@",
      "@@@SET_BUILD_PROPERTY@got_revision_cp@\"refs/heads/main@{#95872}\"@@@"
    ]
  },
  {
    "cmd": [],
    "name": "get node"
  },
  {
    "cmd": [
      "cipd",
      "ensure",
      "-root",
      "[START_DIR]/packages",
      "-ensure-file",
      "infra/nodejs/nodejs/${platform} node_version:12.13.0",
      "-max-threads",
      "0",
      "-json-output",
      "/path/to/tmp/json"
    ],
    "luci_context": {
      "realm": {
        "name": "infra/gerrit-plugins/chromium-style:try"
      },
      "resultdb": {
        "current_invocation": {
          "name": "invocations/build:8945511751514863184",
          "update_token": "token"
        },
        "hostname": "rdbhost"
      }
    },
    "name": "get node.ensure_installed",
    "~followup_annotations": [
      "@@@STEP_NEST_LEVEL@1@@@",
      "@@@STEP_LOG_LINE@json.output@{@@@",
      "@@@STEP_LOG_LINE@json.output@  \"result\": {@@@",
      "@@@STEP_LOG_LINE@json.output@    \"\": [@@@",
      "@@@STEP_LOG_LINE@json.output@      {@@@",
      "@@@STEP_LOG_LINE@json.output@        \"instance_id\": \"resolved-instance_id-of-node_version:12.\", @@@",
      "@@@STEP_LOG_LINE@json.output@        \"package\": \"infra/nodejs/nodejs/resolved-platform\"@@@",
      "@@@STEP_LOG_LINE@json.output@      }@@@",
      "@@@STEP_LOG_LINE@json.output@    ]@@@",
      "@@@STEP_LOG_LINE@json.output@  }@@@",
      "@@@STEP_LOG_LINE@json.output@}@@@",
      "@@@STEP_LOG_END@json.output@@@"
    ]
  },
  {
    "cmd": [],
    "name": "get chrome"
  },
  {
    "cmd": [
      "python3",
      "-u",
      "RECIPE_MODULE[depot_tools::gsutil]/resources/gsutil_smart_retry.py",
      "--",
      "RECIPE_REPO[depot_tools]/gsutil.py",
      "----",
      "cp",
      "gs://chromium-browser-snapshots/Linux_x64/LAST_CHANGE",
      "[CLEANUP]/chrome_tmp_1"
    ],
    "infra_step": true,
    "luci_context": {
      "realm": {
        "name": "infra/gerrit-plugins/chromium-style:try"
      },
      "resultdb": {
        "current_invocation": {
          "name": "invocations/build:8945511751514863184",
          "update_token": "token"
        },
        "hostname": "rdbhost"
      }
    },
    "name": "get chrome.gsutil download",
    "~followup_annotations": [
      "@@@STEP_NEST_LEVEL@1@@@"
    ]
  },
  {
    "cmd": [
      "vpython3",
      "-u",
      "RECIPE_MODULE[recipe_engine::file]/resources/fileutil.py",
      "--json-output",
      "/path/to/tmp/json",
      "copy",
      "[CLEANUP]/chrome_tmp_1/LAST_CHANGE",
      "/path/to/tmp/"
    ],
    "infra_step": true,
    "luci_context": {
      "realm": {
        "name": "infra/gerrit-plugins/chromium-style:try"
      },
      "resultdb": {
        "current_invocation": {
          "name": "invocations/build:8945511751514863184",
          "update_token": "token"
        },
        "hostname": "rdbhost"
      }
    },
    "name": "get chrome.read latest chrome version",
    "~followup_annotations": [
      "@@@STEP_NEST_LEVEL@1@@@",
      "@@@STEP_LOG_END@LAST_CHANGE@@@"
    ]
  },
  {
    "cmd": [
      "python3",
      "-u",
      "RECIPE_MODULE[depot_tools::gsutil]/resources/gsutil_smart_retry.py",
      "--",
      "RECIPE_REPO[depot_tools]/gsutil.py",
      "----",
      "cp",
      "gs://chromium-browser-snapshots/Linux_x64//chrome-linux.zip",
      "[CLEANUP]/chrome_tmp_1"
    ],
    "infra_step": true,
    "luci_context": {
      "realm": {
        "name": "infra/gerrit-plugins/chromium-style:try"
      },
      "resultdb": {
        "current_invocation": {
          "name": "invocations/build:8945511751514863184",
          "update_token": "token"
        },
        "hostname": "rdbhost"
      }
    },
    "name": "get chrome.gsutil download (2)",
    "~followup_annotations": [
      "@@@STEP_NEST_LEVEL@1@@@"
    ]
  },
  {
    "cmd": [
      "python",
      "RECIPE_MODULE[infra::zip]/resources/unzip.py"
    ],
    "luci_context": {
      "realm": {
        "name": "infra/gerrit-plugins/chromium-style:try"
      },
      "resultdb": {
        "current_invocation": {
          "name": "invocations/build:8945511751514863184",
          "update_token": "token"
        },
        "hostname": "rdbhost"
      }
    },
    "name": "get chrome.unzip chrome",
    "stdin": "{\"output\": \"[CLEANUP]/chrome_tmp_1/zip\", \"quiet\": false, \"zip_file\": \"[CLEANUP]/chrome_tmp_1/chrome-linux.zip\"}",
    "~followup_annotations": [
      "@@@STEP_NEST_LEVEL@1@@@"
    ]
  },
  {
    "cmd": [
      "mv",
      "[CLEANUP]/chrome_tmp_1/zip/chrome-linux/chrome",
      "[CLEANUP]/chrome_tmp_1/zip/chrome-linux/chromium"
    ],
    "luci_context": {
      "realm": {
        "name": "infra/gerrit-plugins/chromium-style:try"
      },
      "resultdb": {
        "current_invocation": {
          "name": "invocations/build:8945511751514863184",
          "update_token": "token"
        },
        "hostname": "rdbhost"
      }
    },
    "name": "rename to chromium"
  },
  {
    "cmd": [],
    "name": "set up plugin layout"
  },
  {
    "cmd": [
      "mv",
      "[START_DIR]/gerrit_plugins_chromium_style",
      "[START_DIR]/gerrit/plugins"
    ],
    "luci_context": {
      "realm": {
        "name": "infra/gerrit-plugins/chromium-style:try"
      },
      "resultdb": {
        "current_invocation": {
          "name": "invocations/build:8945511751514863184",
          "update_token": "token"
        },
        "hostname": "rdbhost"
      }
    },
    "name": "set up plugin layout.move test repo",
    "~followup_annotations": [
      "@@@STEP_NEST_LEVEL@1@@@"
    ]
  },
  {
    "cmd": [
      "mv",
      "[START_DIR]/gerrit/plugins/gerrit_plugins_chromium_style",
      "[START_DIR]/gerrit/plugins/chromium-style"
    ],
    "luci_context": {
      "realm": {
        "name": "infra/gerrit-plugins/chromium-style:try"
      },
      "resultdb": {
        "current_invocation": {
          "name": "invocations/build:8945511751514863184",
          "update_token": "token"
        },
        "hostname": "rdbhost"
      }
    },
    "name": "set up plugin layout.rename test repo",
    "~followup_annotations": [
      "@@@STEP_NEST_LEVEL@1@@@"
    ]
  },
  {
    "cmd": [],
    "name": "get bazel"
  },
  {
    "cmd": [
      "python3",
      "-u",
      "RECIPE_MODULE[depot_tools::gsutil]/resources/gsutil_smart_retry.py",
      "--",
      "RECIPE_REPO[depot_tools]/gsutil.py",
      "----",
      "cp",
      "gs://bazel/5.0.0/release/bazel-5.0.0-linux-x86_64",
      "[CLEANUP]/bazel_tmp_1/bazel"
    ],
    "infra_step": true,
    "luci_context": {
      "realm": {
        "name": "infra/gerrit-plugins/chromium-style:try"
      },
      "resultdb": {
        "current_invocation": {
          "name": "invocations/build:8945511751514863184",
          "update_token": "token"
        },
        "hostname": "rdbhost"
      }
    },
    "name": "get bazel.gsutil download",
    "~followup_annotations": [
      "@@@STEP_NEST_LEVEL@1@@@"
    ]
  },
  {
    "cmd": [
      "chmod",
      "+x",
      "[CLEANUP]/bazel_tmp_1/bazel"
    ],
    "luci_context": {
      "realm": {
        "name": "infra/gerrit-plugins/chromium-style:try"
      },
      "resultdb": {
        "current_invocation": {
          "name": "invocations/build:8945511751514863184",
          "update_token": "token"
        },
        "hostname": "rdbhost"
      }
    },
    "name": "get bazel.make bazel executable",
    "~followup_annotations": [
      "@@@STEP_NEST_LEVEL@1@@@"
    ]
  },
  {
    "cmd": [
      "npm",
      "install",
      "@open-wc/testing"
    ],
    "cwd": "[START_DIR]/gerrit/plugins/chromium-style",
    "env": {
      "CHROMIUM_BIN": "[CLEANUP]/chrome_tmp_1/zip/chrome-linux/chromium",
      "PATH": "[CLEANUP]/bazel_tmp_1:[START_DIR]/packages/bin:[CLEANUP]/chrome_tmp_1/zip/chrome-linux:<PATH>"
    },
    "luci_context": {
      "realm": {
        "name": "infra/gerrit-plugins/chromium-style:try"
      },
      "resultdb": {
        "current_invocation": {
          "name": "invocations/build:8945511751514863184",
          "update_token": "token"
        },
        "hostname": "rdbhost"
      }
    },
    "name": "npm install @open-wc/testing"
  },
  {
    "cmd": [
      "bazel",
      "clean",
      "--expunge"
    ],
    "cwd": "[START_DIR]/gerrit/plugins/chromium-style",
    "env": {
      "CHROMIUM_BIN": "[CLEANUP]/chrome_tmp_1/zip/chrome-linux/chromium",
      "PATH": "[CLEANUP]/bazel_tmp_1:[START_DIR]/packages/bin:[CLEANUP]/chrome_tmp_1/zip/chrome-linux:<PATH>"
    },
    "luci_context": {
      "realm": {
        "name": "infra/gerrit-plugins/chromium-style:try"
      },
      "resultdb": {
        "current_invocation": {
          "name": "invocations/build:8945511751514863184",
          "update_token": "token"
        },
        "hostname": "rdbhost"
      }
    },
    "name": "bazel clean --expunge"
  },
  {
    "cmd": [
      "bazel",
      "test",
      "--test_output=all",
      "web:karma_test",
      "--test_arg=ChromiumHeadless"
    ],
    "cwd": "[START_DIR]/gerrit/plugins/chromium-style",
    "env": {
      "CHROMIUM_BIN": "[CLEANUP]/chrome_tmp_1/zip/chrome-linux/chromium",
      "PATH": "[CLEANUP]/bazel_tmp_1:[START_DIR]/packages/bin:[CLEANUP]/chrome_tmp_1/zip/chrome-linux:<PATH>"
    },
    "luci_context": {
      "realm": {
        "name": "infra/gerrit-plugins/chromium-style:try"
      },
      "resultdb": {
        "current_invocation": {
          "name": "invocations/build:8945511751514863184",
          "update_token": "token"
        },
        "hostname": "rdbhost"
      }
    },
    "name": "run karma tests"
  },
  {
    "name": "$result"
  }
]